<?xml version="1.0" encoding="utf-8"?>
<!-- Generator: Adobe Illustrator 22.1.0, SVG Export Plug-In . SVG Version: 6.00 Build 0)  -->
<svg version="1.1" id="圖層_1" xmlns="http://www.w3.org/2000/svg" xmlns:xlink="http://www.w3.org/1999/xlink" x="0px" y="0px"
	 viewBox="0 0 452 226" style="enable-background:new 0 0 452 226;" xml:space="preserve">
<style type="text/css">
	.st0{opacity:0.6;clip-path:url(#SVGID_2_);}
	.st1{fill:#231815;}
	.st2{fill:#717071;}
</style>
<g>
	<defs>
		<rect id="SVGID_1_" width="452" height="226"/>
	</defs>
	<clipPath id="SVGID_2_">
		<use xlink:href="#SVGID_1_"  style="overflow:visible;"/>
	</clipPath>
	<g class="st0">
		<rect x="145.2" y="46.3" transform="matrix(0.7071 -0.7071 0.7071 0.7071 5.6202 126.2272)" class="st1" width="20" height="20"/>
		
			<rect x="159.3" y="60.5" transform="matrix(0.7071 -0.7071 0.7071 0.7071 -0.2865 140.3895)" class="st2" width="20" height="20"/>
		
			<rect x="173.5" y="46.3" transform="matrix(0.7071 -0.7071 0.7071 0.7071 13.9044 146.2272)" class="st1" width="20" height="20"/>
		<rect x="159.3" y="32.2" transform="matrix(0.7071 -0.7071 0.7071 0.7071 19.7623 132.085)" class="st2" width="20" height="20"/>
		<rect x="88.6" y="46.3" transform="matrix(0.7071 -0.7071 0.7071 0.7071 -10.924 86.2171)" class="st1" width="20" height="20"/>
		
			<rect x="102.8" y="60.5" transform="matrix(0.7071 -0.7071 0.7071 0.7071 -16.8306 100.3794)" class="st2" width="20" height="20"/>
		
			<rect x="116.9" y="46.3" transform="matrix(0.7071 -0.7071 0.7071 0.7071 -2.6397 106.2171)" class="st1" width="20" height="20"/>
		<rect x="102.8" y="32.2" transform="matrix(0.7071 -0.7071 0.7071 0.7071 3.2182 92.0749)" class="st2" width="20" height="20"/>
		<rect x="116.9" y="18" transform="matrix(0.7071 -0.7071 0.7071 0.7071 17.3603 97.9328)" class="st1" width="20" height="20"/>
		<rect x="131" y="32.2" transform="matrix(0.7071 -0.7071 0.7071 0.7071 11.4536 112.0951)" class="st2" width="20" height="20"/>
		<rect x="145.2" y="18" transform="matrix(0.7071 -0.7071 0.7071 0.7071 25.6446 117.9328)" class="st1" width="20" height="20"/>
		<rect x="131" y="3.9" transform="matrix(0.7071 -0.7071 0.7071 0.7071 31.5024 103.7906)" class="st2" width="20" height="20"/>
		
			<rect x="116.9" y="74.6" transform="matrix(0.7071 -0.7071 0.7071 0.7071 -22.6641 114.5114)" class="st1" width="20" height="20"/>
		<rect x="131" y="88.8" transform="matrix(0.7071 -0.7071 0.7071 0.7071 -28.5708 128.6738)" class="st2" width="20" height="20"/>
		
			<rect x="145.2" y="74.6" transform="matrix(0.7071 -0.7071 0.7071 0.7071 -14.3798 134.5114)" class="st1" width="20" height="20"/>
		<rect x="131" y="60.5" transform="matrix(0.7071 -0.7071 0.7071 0.7071 -8.522 120.3693)" class="st2" width="20" height="20"/>
		
			<rect x="201.7" y="102.9" transform="matrix(0.7071 -0.7071 0.7071 0.7071 -17.8479 182.8109)" class="st1" width="20" height="20"/>
		
			<rect x="215.9" y="117.2" transform="matrix(0.7071 -0.7071 0.7071 0.7071 -23.7545 196.9732)" class="st2" width="20" height="20"/>
		<rect x="230" y="102.9" transform="matrix(0.7071 -0.7071 0.7071 0.7071 -9.5636 202.8109)" class="st1" width="20" height="20"/>
		
			<rect x="215.9" y="88.8" transform="matrix(0.7071 -0.7071 0.7071 0.7071 -3.7057 188.6687)" class="st2" width="20" height="20"/>
		
			<rect x="145.2" y="102.9" transform="matrix(0.7071 -0.7071 0.7071 0.7071 -34.392 142.8008)" class="st1" width="20" height="20"/>
		
			<rect x="159.3" y="117.1" transform="matrix(0.7071 -0.7071 0.7071 0.7071 -40.2987 156.9631)" class="st2" width="20" height="20"/>
		
			<rect x="173.5" y="102.9" transform="matrix(0.7071 -0.7071 0.7071 0.7071 -26.1078 162.8008)" class="st1" width="20" height="20"/>
		
			<rect x="159.3" y="88.8" transform="matrix(0.7071 -0.7071 0.7071 0.7071 -20.2499 148.6586)" class="st2" width="20" height="20"/>
		
			<rect x="173.5" y="74.6" transform="matrix(0.7071 -0.7071 0.7071 0.7071 -6.1078 154.5165)" class="st1" width="20" height="20"/>
		
			<rect x="187.6" y="88.8" transform="matrix(0.7071 -0.7071 0.7071 0.7071 -12.0144 168.6788)" class="st2" width="20" height="20"/>
		<rect x="201.7" y="74.6" transform="matrix(0.7071 -0.7071 0.7071 0.7071 2.1765 174.5165)" class="st1" width="20" height="20"/>
		<rect x="187.6" y="60.5" transform="matrix(0.7071 -0.7071 0.7071 0.7071 8.0344 160.3743)" class="st2" width="20" height="20"/>
		
			<rect x="173.5" y="131.2" transform="matrix(0.7071 -0.7071 0.7071 0.7071 -46.1322 171.0951)" class="st1" width="20" height="20"/>
		
			<rect x="187.6" y="145.4" transform="matrix(0.7071 -0.7071 0.7071 0.7071 -52.0388 185.2575)" class="st2" width="20" height="20"/>
		
			<rect x="201.7" y="131.2" transform="matrix(0.7071 -0.7071 0.7071 0.7071 -37.8479 191.0951)" class="st1" width="20" height="20"/>
		<rect x="187.6" y="117.1" transform="matrix(0.7071 -0.7071 0.7071 0.7071 -31.99 176.953)" class="st2" width="20" height="20"/>
		
			<rect x="88.6" y="102.9" transform="matrix(0.7071 -0.7071 0.7071 0.7071 -50.9545 102.7982)" class="st1" width="20" height="20"/>
		
			<rect x="102.8" y="117.1" transform="matrix(0.7071 -0.7071 0.7071 0.7071 -56.8611 116.9606)" class="st2" width="20" height="20"/>
		
			<rect x="116.9" y="102.9" transform="matrix(0.7071 -0.7071 0.7071 0.7071 -42.6702 122.7982)" class="st1" width="20" height="20"/>
		
			<rect x="102.8" y="88.8" transform="matrix(0.7071 -0.7071 0.7071 0.7071 -36.8123 108.6561)" class="st2" width="20" height="20"/>
		<rect x="32" y="102.9" transform="matrix(0.7071 -0.7071 0.7071 0.7071 -67.4986 62.7881)" class="st1" width="20" height="20"/>
		
			<rect x="46.2" y="117.1" transform="matrix(0.7071 -0.7071 0.7071 0.7071 -73.4053 76.9505)" class="st2" width="20" height="20"/>
		
			<rect x="60.3" y="102.9" transform="matrix(0.7071 -0.7071 0.7071 0.7071 -59.2143 82.7881)" class="st1" width="20" height="20"/>
		<rect x="46.2" y="88.7" transform="matrix(0.7071 -0.7071 0.7071 0.7071 -53.3565 68.646)" class="st2" width="20" height="20"/>
		<rect x="60.3" y="74.6" transform="matrix(0.7071 -0.7071 0.7071 0.7071 -39.2143 74.5039)" class="st1" width="20" height="20"/>
		<rect x="74.5" y="88.8" transform="matrix(0.7071 -0.7071 0.7071 0.7071 -45.121 88.6662)" class="st2" width="20" height="20"/>
		<rect x="88.6" y="74.6" transform="matrix(0.7071 -0.7071 0.7071 0.7071 -30.9301 94.5039)" class="st1" width="20" height="20"/>
		<rect x="74.5" y="60.4" transform="matrix(0.7071 -0.7071 0.7071 0.7071 -25.0722 80.3617)" class="st2" width="20" height="20"/>
		
			<rect x="60.3" y="131.2" transform="matrix(0.7071 -0.7071 0.7071 0.7071 -79.2387 91.0825)" class="st1" width="20" height="20"/>
		
			<rect x="74.5" y="145.4" transform="matrix(0.7071 -0.7071 0.7071 0.7071 -85.1454 105.2448)" class="st2" width="20" height="20"/>
		
			<rect x="88.6" y="131.2" transform="matrix(0.7071 -0.7071 0.7071 0.7071 -70.9545 111.0825)" class="st1" width="20" height="20"/>
		<rect x="74.5" y="117" transform="matrix(0.7071 -0.7071 0.7071 0.7071 -65.0966 96.9404)" class="st2" width="20" height="20"/>
		
			<rect x="145.2" y="159.5" transform="matrix(0.7071 -0.7071 0.7071 0.7071 -74.4225 159.3819)" class="st1" width="20" height="20"/>
		
			<rect x="159.3" y="173.7" transform="matrix(0.7071 -0.7071 0.7071 0.7071 -80.3292 173.5443)" class="st2" width="20" height="20"/>
		
			<rect x="173.5" y="159.5" transform="matrix(0.7071 -0.7071 0.7071 0.7071 -66.1383 179.3819)" class="st1" width="20" height="20"/>
		
			<rect x="159.3" y="145.4" transform="matrix(0.7071 -0.7071 0.7071 0.7071 -60.2804 165.2398)" class="st2" width="20" height="20"/>
		
			<rect x="88.6" y="159.5" transform="matrix(0.7071 -0.7071 0.7071 0.7071 -90.9667 119.3718)" class="st1" width="20" height="20"/>
		
			<rect x="102.8" y="173.7" transform="matrix(0.7071 -0.7071 0.7071 0.7071 -96.8733 133.5342)" class="st2" width="20" height="20"/>
		
			<rect x="116.9" y="159.5" transform="matrix(0.7071 -0.7071 0.7071 0.7071 -82.6824 139.3718)" class="st1" width="20" height="20"/>
		
			<rect x="102.8" y="145.4" transform="matrix(0.7071 -0.7071 0.7071 0.7071 -76.8245 125.2297)" class="st2" width="20" height="20"/>
		
			<rect x="116.9" y="131.2" transform="matrix(0.7071 -0.7071 0.7071 0.7071 -62.6824 131.0876)" class="st1" width="20" height="20"/>
		
			<rect x="131" y="145.4" transform="matrix(0.7071 -0.7071 0.7071 0.7071 -68.5891 145.2499)" class="st2" width="20" height="20"/>
		
			<rect x="145.2" y="131.2" transform="matrix(0.7071 -0.7071 0.7071 0.7071 -54.3981 151.0876)" class="st1" width="20" height="20"/>
		
			<rect x="131" y="117.1" transform="matrix(0.7071 -0.7071 0.7071 0.7071 -48.5403 136.9454)" class="st2" width="20" height="20"/>
		
			<rect x="116.9" y="187.8" transform="matrix(0.7071 -0.7071 0.7071 0.7071 -102.7068 147.6662)" class="st1" width="20" height="20"/>
		<rect x="131" y="202" transform="matrix(0.7071 -0.7071 0.7071 0.7071 -108.6134 161.8286)" class="st2" width="20" height="20"/>
		
			<rect x="145.2" y="187.8" transform="matrix(0.7071 -0.7071 0.7071 0.7071 -94.4225 167.6662)" class="st1" width="20" height="20"/>
		
			<rect x="131" y="173.7" transform="matrix(0.7071 -0.7071 0.7071 0.7071 -88.5647 153.5241)" class="st2" width="20" height="20"/>
		
			<rect x="371.5" y="46.4" transform="matrix(0.7071 -0.7071 0.7071 0.7071 71.8425 286.2486)" class="st1" width="20" height="20"/>
		<rect x="385.6" y="60.6" transform="matrix(0.7071 -0.7071 0.7071 0.7071 65.9358 300.411)" class="st2" width="20" height="20"/>
		
			<rect x="399.7" y="46.4" transform="matrix(0.7071 -0.7071 0.7071 0.7071 80.1268 306.2486)" class="st1" width="20" height="20"/>
		
			<rect x="385.6" y="32.3" transform="matrix(0.7071 -0.7071 0.7071 0.7071 85.9846 292.1065)" class="st2" width="20" height="20"/>
		
			<rect x="314.9" y="46.4" transform="matrix(0.7071 -0.7071 0.7071 0.7071 55.2984 246.2385)" class="st1" width="20" height="20"/>
		<rect x="329" y="60.6" transform="matrix(0.7071 -0.7071 0.7071 0.7071 49.3917 260.4009)" class="st2" width="20" height="20"/>
		
			<rect x="343.2" y="46.4" transform="matrix(0.7071 -0.7071 0.7071 0.7071 63.5826 266.2385)" class="st1" width="20" height="20"/>
		<rect x="329" y="32.2" transform="matrix(0.7071 -0.7071 0.7071 0.7071 69.4405 252.0964)" class="st2" width="20" height="20"/>
		
			<rect x="343.2" y="18.1" transform="matrix(0.7071 -0.7071 0.7071 0.7071 83.5826 257.9543)" class="st1" width="20" height="20"/>
		<rect x="357.3" y="32.3" transform="matrix(0.7071 -0.7071 0.7071 0.7071 77.676 272.1166)" class="st2" width="20" height="20"/>
		
			<rect x="371.5" y="18.1" transform="matrix(0.7071 -0.7071 0.7071 0.7071 91.8669 277.9543)" class="st1" width="20" height="20"/>
		<rect x="357.3" y="3.9" transform="matrix(0.7071 -0.7071 0.7071 0.7071 97.7248 263.8121)" class="st2" width="20" height="20"/>
		
			<rect x="343.2" y="74.7" transform="matrix(0.7071 -0.7071 0.7071 0.7071 43.5582 274.5329)" class="st1" width="20" height="20"/>
		
			<rect x="357.3" y="88.9" transform="matrix(0.7071 -0.7071 0.7071 0.7071 37.6516 288.6953)" class="st2" width="20" height="20"/>
		
			<rect x="371.5" y="74.7" transform="matrix(0.7071 -0.7071 0.7071 0.7071 51.8425 294.5329)" class="st1" width="20" height="20"/>
		
			<rect x="357.3" y="60.5" transform="matrix(0.7071 -0.7071 0.7071 0.7071 57.7004 280.3908)" class="st2" width="20" height="20"/>
		<rect x="428" y="103" transform="matrix(0.7071 -0.7071 0.7071 0.7071 48.3744 342.8323)" class="st1" width="20" height="20"/>
		
			<rect x="442.2" y="117.2" transform="matrix(0.7071 -0.7071 0.7071 0.7071 42.4678 356.9947)" class="st2" width="20" height="20"/>
		<rect x="456.3" y="103" transform="matrix(0.7071 -0.7071 0.7071 0.7071 56.6587 362.8323)" class="st1" width="20" height="20"/>
		
			<rect x="442.2" y="88.9" transform="matrix(0.7071 -0.7071 0.7071 0.7071 62.5166 348.6902)" class="st2" width="20" height="20"/>
		<rect x="371.5" y="103" transform="matrix(0.7071 -0.7071 0.7071 0.7071 31.8303 302.8222)" class="st1" width="20" height="20"/>
		
			<rect x="385.6" y="117.2" transform="matrix(0.7071 -0.7071 0.7071 0.7071 25.9236 316.9846)" class="st2" width="20" height="20"/>
		<rect x="399.7" y="103" transform="matrix(0.7071 -0.7071 0.7071 0.7071 40.1146 322.8222)" class="st1" width="20" height="20"/>
		
			<rect x="385.6" y="88.8" transform="matrix(0.7071 -0.7071 0.7071 0.7071 45.9724 308.6801)" class="st2" width="20" height="20"/>
		<rect x="399.7" y="74.7" transform="matrix(0.7071 -0.7071 0.7071 0.7071 60.1146 314.538)" class="st1" width="20" height="20"/>
		
			<rect x="413.9" y="88.9" transform="matrix(0.7071 -0.7071 0.7071 0.7071 54.2079 328.7003)" class="st2" width="20" height="20"/>
		<rect x="428" y="74.7" transform="matrix(0.7071 -0.7071 0.7071 0.7071 68.3988 334.538)" class="st1" width="20" height="20"/>
		
			<rect x="413.9" y="60.6" transform="matrix(0.7071 -0.7071 0.7071 0.7071 74.2567 320.3958)" class="st2" width="20" height="20"/>
		
			<rect x="399.7" y="131.3" transform="matrix(0.7071 -0.7071 0.7071 0.7071 20.0902 331.1166)" class="st1" width="20" height="20"/>
		
			<rect x="413.9" y="145.5" transform="matrix(0.7071 -0.7071 0.7071 0.7071 14.1835 345.279)" class="st2" width="20" height="20"/>
		<rect x="428" y="131.3" transform="matrix(0.7071 -0.7071 0.7071 0.7071 28.3744 351.1166)" class="st1" width="20" height="20"/>
		
			<rect x="413.9" y="117.2" transform="matrix(0.7071 -0.7071 0.7071 0.7071 34.2323 336.9745)" class="st2" width="20" height="20"/>
		<rect x="314.9" y="103" transform="matrix(0.7071 -0.7071 0.7071 0.7071 15.2679 262.8197)" class="st1" width="20" height="20"/>
		<rect x="329" y="117.2" transform="matrix(0.7071 -0.7071 0.7071 0.7071 9.3612 276.9821)" class="st2" width="20" height="20"/>
		<rect x="343.2" y="103" transform="matrix(0.7071 -0.7071 0.7071 0.7071 23.5521 282.8197)" class="st1" width="20" height="20"/>
		<rect x="329" y="88.8" transform="matrix(0.7071 -0.7071 0.7071 0.7071 29.41 268.6776)" class="st2" width="20" height="20"/>
		
			<rect x="258.3" y="102.9" transform="matrix(0.7071 -0.7071 0.7071 0.7071 -1.2763 222.8096)" class="st1" width="20" height="20"/>
		
			<rect x="272.5" y="117.2" transform="matrix(0.7071 -0.7071 0.7071 0.7071 -7.1829 236.9719)" class="st2" width="20" height="20"/>
		<rect x="286.6" y="102.9" transform="matrix(0.7071 -0.7071 0.7071 0.7071 7.008 242.8096)" class="st1" width="20" height="20"/>
		
			<rect x="272.5" y="88.8" transform="matrix(0.7071 -0.7071 0.7071 0.7071 12.8658 228.6675)" class="st2" width="20" height="20"/>
		<rect x="286.6" y="74.7" transform="matrix(0.7071 -0.7071 0.7071 0.7071 27.008 234.5253)" class="st1" width="20" height="20"/>
		
			<rect x="300.7" y="88.9" transform="matrix(0.7071 -0.7071 0.7071 0.7071 21.1013 248.6877)" class="st2" width="20" height="20"/>
		
			<rect x="314.9" y="74.7" transform="matrix(0.7071 -0.7071 0.7071 0.7071 35.2923 254.5253)" class="st1" width="20" height="20"/>
		
			<rect x="300.7" y="60.5" transform="matrix(0.7071 -0.7071 0.7071 0.7071 41.1501 240.3832)" class="st2" width="20" height="20"/>
		
			<rect x="286.6" y="131.3" transform="matrix(0.7071 -0.7071 0.7071 0.7071 -13.0164 251.104)" class="st1" width="20" height="20"/>
		
			<rect x="300.7" y="145.5" transform="matrix(0.7071 -0.7071 0.7071 0.7071 -18.9231 265.2663)" class="st2" width="20" height="20"/>
		
			<rect x="314.9" y="131.3" transform="matrix(0.7071 -0.7071 0.7071 0.7071 -4.7321 271.104)" class="st1" width="20" height="20"/>
		
			<rect x="300.7" y="117.1" transform="matrix(0.7071 -0.7071 0.7071 0.7071 1.1257 256.9618)" class="st2" width="20" height="20"/>
		
			<rect x="371.5" y="159.6" transform="matrix(0.7071 -0.7071 0.7071 0.7071 -8.2002 319.4034)" class="st1" width="20" height="20"/>
		
			<rect x="385.6" y="173.8" transform="matrix(0.7071 -0.7071 0.7071 0.7071 -14.1069 333.5657)" class="st2" width="20" height="20"/>
		
			<rect x="399.7" y="159.6" transform="matrix(0.7071 -0.7071 0.7071 0.7071 8.407786e-02 339.4034)" class="st1" width="20" height="20"/>
		
			<rect x="385.6" y="145.5" transform="matrix(0.7071 -0.7071 0.7071 0.7071 5.9419 325.2613)" class="st2" width="20" height="20"/>
		
			<rect x="314.9" y="159.6" transform="matrix(0.7071 -0.7071 0.7071 0.7071 -24.7443 279.3933)" class="st1" width="20" height="20"/>
		<rect x="329" y="173.8" transform="matrix(0.7071 -0.7071 0.7071 0.7071 -30.651 293.5556)" class="st2" width="20" height="20"/>
		
			<rect x="343.2" y="159.6" transform="matrix(0.7071 -0.7071 0.7071 0.7071 -16.4601 299.3933)" class="st1" width="20" height="20"/>
		
			<rect x="329" y="145.4" transform="matrix(0.7071 -0.7071 0.7071 0.7071 -10.6022 285.2512)" class="st2" width="20" height="20"/>
		<rect x="343.2" y="131.3" transform="matrix(0.7071 -0.7071 0.7071 0.7071 3.5399 291.109)" class="st1" width="20" height="20"/>
		
			<rect x="357.3" y="145.5" transform="matrix(0.7071 -0.7071 0.7071 0.7071 -2.3667 305.2714)" class="st2" width="20" height="20"/>
		
			<rect x="371.5" y="131.3" transform="matrix(0.7071 -0.7071 0.7071 0.7071 11.8242 311.109)" class="st1" width="20" height="20"/>
		
			<rect x="357.3" y="117.1" transform="matrix(0.7071 -0.7071 0.7071 0.7071 17.6821 296.9669)" class="st2" width="20" height="20"/>
		
			<rect x="343.2" y="187.9" transform="matrix(0.7071 -0.7071 0.7071 0.7071 -36.4845 307.6877)" class="st1" width="20" height="20"/>
		
			<rect x="357.3" y="202.1" transform="matrix(0.7071 -0.7071 0.7071 0.7071 -42.3911 321.85)" class="st2" width="20" height="20"/>
		
			<rect x="371.5" y="187.9" transform="matrix(0.7071 -0.7071 0.7071 0.7071 -28.2002 327.6877)" class="st1" width="20" height="20"/>
		
			<rect x="357.3" y="173.7" transform="matrix(0.7071 -0.7071 0.7071 0.7071 -22.3423 313.5455)" class="st2" width="20" height="20"/>
		
			<rect x="314.9" y="-10.3" transform="matrix(0.7071 -0.7071 0.7071 0.7071 95.3685 229.6409)" class="st1" width="20" height="20"/>
		<rect x="329" y="3.9" transform="matrix(0.7071 -0.7071 0.7071 0.7071 89.4618 243.8033)" class="st2" width="20" height="20"/>
		
			<rect x="343.2" y="-10.3" transform="matrix(0.7071 -0.7071 0.7071 0.7071 103.6528 249.6409)" class="st1" width="20" height="20"/>
		
			<rect x="258.3" y="-10.3" transform="matrix(0.7071 -0.7071 0.7071 0.7071 78.8243 189.6308)" class="st1" width="20" height="20"/>
		<rect x="272.5" y="3.9" transform="matrix(0.7071 -0.7071 0.7071 0.7071 72.9177 203.7932)" class="st2" width="20" height="20"/>
		
			<rect x="286.6" y="-10.3" transform="matrix(0.7071 -0.7071 0.7071 0.7071 87.1086 209.6308)" class="st1" width="20" height="20"/>
		<rect x="286.6" y="18" transform="matrix(0.7071 -0.7071 0.7071 0.7071 67.0842 217.9252)" class="st1" width="20" height="20"/>
		
			<rect x="300.7" y="32.2" transform="matrix(0.7071 -0.7071 0.7071 0.7071 61.1776 232.0876)" class="st2" width="20" height="20"/>
		<rect x="314.9" y="18" transform="matrix(0.7071 -0.7071 0.7071 0.7071 75.3685 237.9252)" class="st1" width="20" height="20"/>
		<rect x="300.7" y="3.8" transform="matrix(0.7071 -0.7071 0.7071 0.7071 81.2264 223.7831)" class="st2" width="20" height="20"/>
		
			<rect x="201.7" y="-10.3" transform="matrix(0.7071 -0.7071 0.7071 0.7071 62.2619 149.6283)" class="st1" width="20" height="20"/>
		<rect x="215.9" y="3.9" transform="matrix(0.7071 -0.7071 0.7071 0.7071 56.3552 163.7906)" class="st2" width="20" height="20"/>
		<rect x="230" y="-10.3" transform="matrix(0.7071 -0.7071 0.7071 0.7071 70.5462 169.6283)" class="st1" width="20" height="20"/>
		
			<rect x="145.2" y="-10.4" transform="matrix(0.7071 -0.7071 0.7071 0.7071 45.7178 109.6182)" class="st1" width="20" height="20"/>
		<rect x="159.3" y="3.8" transform="matrix(0.7071 -0.7071 0.7071 0.7071 39.8111 123.7805)" class="st2" width="20" height="20"/>
		
			<rect x="173.5" y="-10.4" transform="matrix(0.7071 -0.7071 0.7071 0.7071 54.002 129.6182)" class="st1" width="20" height="20"/>
		
			<rect x="173.5" y="17.9" transform="matrix(0.7071 -0.7071 0.7071 0.7071 33.9776 137.9126)" class="st1" width="20" height="20"/>
		<rect x="187.6" y="32.2" transform="matrix(0.7071 -0.7071 0.7071 0.7071 28.071 152.0749)" class="st2" width="20" height="20"/>
		
			<rect x="201.7" y="17.9" transform="matrix(0.7071 -0.7071 0.7071 0.7071 42.2619 157.9126)" class="st1" width="20" height="20"/>
		<rect x="187.6" y="3.8" transform="matrix(0.7071 -0.7071 0.7071 0.7071 48.1198 143.7704)" class="st2" width="20" height="20"/>
		<rect x="258.3" y="46.3" transform="matrix(0.7071 -0.7071 0.7071 0.7071 38.7938 206.212)" class="st1" width="20" height="20"/>
		
			<rect x="272.5" y="60.5" transform="matrix(0.7071 -0.7071 0.7071 0.7071 32.8872 220.3743)" class="st2" width="20" height="20"/>
		<rect x="286.6" y="46.3" transform="matrix(0.7071 -0.7071 0.7071 0.7071 47.0781 226.212)" class="st1" width="20" height="20"/>
		<rect x="272.5" y="32.1" transform="matrix(0.7071 -0.7071 0.7071 0.7071 52.936 212.0699)" class="st2" width="20" height="20"/>
		
			<rect x="201.7" y="46.2" transform="matrix(0.7071 -0.7071 0.7071 0.7071 22.2497 166.2019)" class="st1" width="20" height="20"/>
		<rect x="215.9" y="60.5" transform="matrix(0.7071 -0.7071 0.7071 0.7071 16.343 180.3642)" class="st2" width="20" height="20"/>
		<rect x="230" y="46.2" transform="matrix(0.7071 -0.7071 0.7071 0.7071 30.534 186.2019)" class="st1" width="20" height="20"/>
		
			<rect x="215.9" y="32.1" transform="matrix(0.7071 -0.7071 0.7071 0.7071 36.3918 172.0598)" class="st2" width="20" height="20"/>
		<rect x="230" y="18" transform="matrix(0.7071 -0.7071 0.7071 0.7071 50.534 177.9176)" class="st1" width="20" height="20"/>
		<rect x="244.2" y="32.2" transform="matrix(0.7071 -0.7071 0.7071 0.7071 44.6273 192.08)" class="st2" width="20" height="20"/>
		<rect x="258.3" y="18" transform="matrix(0.7071 -0.7071 0.7071 0.7071 58.8182 197.9176)" class="st1" width="20" height="20"/>
		<rect x="244.2" y="3.8" transform="matrix(0.7071 -0.7071 0.7071 0.7071 64.6761 183.7755)" class="st2" width="20" height="20"/>
		<rect x="230" y="74.6" transform="matrix(0.7071 -0.7071 0.7071 0.7071 10.5096 194.4963)" class="st1" width="20" height="20"/>
		<rect x="244.2" y="88.8" transform="matrix(0.7071 -0.7071 0.7071 0.7071 4.6029 208.6586)" class="st2" width="20" height="20"/>
		
			<rect x="258.3" y="74.6" transform="matrix(0.7071 -0.7071 0.7071 0.7071 18.7938 214.4963)" class="st1" width="20" height="20"/>
		
			<rect x="244.2" y="60.4" transform="matrix(0.7071 -0.7071 0.7071 0.7071 24.6517 200.3541)" class="st2" width="20" height="20"/>
		
			<rect x="258.3" y="159.5" transform="matrix(0.7071 -0.7071 0.7071 0.7071 -41.2488 239.3668)" class="st1" width="20" height="20"/>
		
			<rect x="272.5" y="173.7" transform="matrix(0.7071 -0.7071 0.7071 0.7071 -47.1555 253.5291)" class="st2" width="20" height="20"/>
		
			<rect x="286.6" y="159.5" transform="matrix(0.7071 -0.7071 0.7071 0.7071 -32.9646 259.3668)" class="st1" width="20" height="20"/>
		
			<rect x="272.5" y="145.3" transform="matrix(0.7071 -0.7071 0.7071 0.7071 -27.1067 245.2246)" class="st2" width="20" height="20"/>
		
			<rect x="201.7" y="159.4" transform="matrix(0.7071 -0.7071 0.7071 0.7071 -57.793 199.3567)" class="st1" width="20" height="20"/>
		
			<rect x="215.9" y="173.7" transform="matrix(0.7071 -0.7071 0.7071 0.7071 -63.6996 213.519)" class="st2" width="20" height="20"/>
		
			<rect x="230" y="159.4" transform="matrix(0.7071 -0.7071 0.7071 0.7071 -49.5087 219.3567)" class="st1" width="20" height="20"/>
		
			<rect x="215.9" y="145.3" transform="matrix(0.7071 -0.7071 0.7071 0.7071 -43.6509 205.2145)" class="st2" width="20" height="20"/>
		
			<rect x="230" y="131.2" transform="matrix(0.7071 -0.7071 0.7071 0.7071 -29.5087 211.0724)" class="st1" width="20" height="20"/>
		
			<rect x="244.2" y="145.4" transform="matrix(0.7071 -0.7071 0.7071 0.7071 -35.4154 225.2347)" class="st2" width="20" height="20"/>
		
			<rect x="258.3" y="131.2" transform="matrix(0.7071 -0.7071 0.7071 0.7071 -21.2244 231.0724)" class="st1" width="20" height="20"/>
		
			<rect x="244.2" y="117" transform="matrix(0.7071 -0.7071 0.7071 0.7071 -15.3666 216.9303)" class="st2" width="20" height="20"/>
		<rect x="230" y="187.8" transform="matrix(0.7071 -0.7071 0.7071 0.7071 -69.5331 227.651)" class="st1" width="20" height="20"/>
		
			<rect x="244.2" y="202" transform="matrix(0.7071 -0.7071 0.7071 0.7071 -75.4398 241.8134)" class="st2" width="20" height="20"/>
		
			<rect x="258.3" y="187.8" transform="matrix(0.7071 -0.7071 0.7071 0.7071 -61.2488 247.651)" class="st1" width="20" height="20"/>
		
			<rect x="244.2" y="173.6" transform="matrix(0.7071 -0.7071 0.7071 0.7071 -55.391 233.5089)" class="st2" width="20" height="20"/>
		
			<rect x="314.9" y="216.1" transform="matrix(0.7071 -0.7071 0.7071 0.7071 -64.7169 295.9505)" class="st1" width="20" height="20"/>
		
			<rect x="343.2" y="216.1" transform="matrix(0.7071 -0.7071 0.7071 0.7071 -56.4326 315.9505)" class="st1" width="20" height="20"/>
		<rect x="329" y="202" transform="matrix(0.7071 -0.7071 0.7071 0.7071 -50.5748 301.8083)" class="st2" width="20" height="20"/>
		
			<rect x="258.3" y="216.1" transform="matrix(0.7071 -0.7071 0.7071 0.7071 -81.261 255.9404)" class="st1" width="20" height="20"/>
		
			<rect x="286.6" y="216.1" transform="matrix(0.7071 -0.7071 0.7071 0.7071 -72.9768 275.9404)" class="st1" width="20" height="20"/>
		
			<rect x="272.5" y="201.9" transform="matrix(0.7071 -0.7071 0.7071 0.7071 -67.1189 261.7982)" class="st2" width="20" height="20"/>
		
			<rect x="286.6" y="187.8" transform="matrix(0.7071 -0.7071 0.7071 0.7071 -52.9768 267.6561)" class="st1" width="20" height="20"/>
		
			<rect x="300.7" y="202" transform="matrix(0.7071 -0.7071 0.7071 0.7071 -58.8834 281.8185)" class="st2" width="20" height="20"/>
		
			<rect x="314.9" y="187.8" transform="matrix(0.7071 -0.7071 0.7071 0.7071 -44.6925 287.6561)" class="st1" width="20" height="20"/>
		
			<rect x="300.7" y="173.6" transform="matrix(0.7071 -0.7071 0.7071 0.7071 -38.8346 273.5139)" class="st2" width="20" height="20"/>
		
			<rect x="201.7" y="216.1" transform="matrix(0.7071 -0.7071 0.7071 0.7071 -97.8235 215.9378)" class="st1" width="20" height="20"/>
		
			<rect x="230" y="216.1" transform="matrix(0.7071 -0.7071 0.7071 0.7071 -89.5392 235.9378)" class="st1" width="20" height="20"/>
		
			<rect x="215.9" y="201.9" transform="matrix(0.7071 -0.7071 0.7071 0.7071 -83.6813 221.7957)" class="st2" width="20" height="20"/>
		
			<rect x="145.2" y="216" transform="matrix(0.7071 -0.7071 0.7071 0.7071 -114.3676 175.9277)" class="st1" width="20" height="20"/>
		
			<rect x="173.5" y="216" transform="matrix(0.7071 -0.7071 0.7071 0.7071 -106.0834 195.9277)" class="st1" width="20" height="20"/>
		
			<rect x="159.3" y="201.9" transform="matrix(0.7071 -0.7071 0.7071 0.7071 -100.2255 181.7856)" class="st2" width="20" height="20"/>
		
			<rect x="173.5" y="187.7" transform="matrix(0.7071 -0.7071 0.7071 0.7071 -86.0834 187.6435)" class="st1" width="20" height="20"/>
		
			<rect x="187.6" y="201.9" transform="matrix(0.7071 -0.7071 0.7071 0.7071 -91.99 201.8058)" class="st2" width="20" height="20"/>
		
			<rect x="201.7" y="187.7" transform="matrix(0.7071 -0.7071 0.7071 0.7071 -77.7991 207.6435)" class="st1" width="20" height="20"/>
		
			<rect x="187.6" y="173.6" transform="matrix(0.7071 -0.7071 0.7071 0.7071 -71.9412 193.5013)" class="st2" width="20" height="20"/>
		<rect x="428" y="159.6" transform="matrix(0.7071 -0.7071 0.7071 0.7071 8.3348 359.4173)" class="st1" width="20" height="20"/>
		
			<rect x="442.2" y="173.9" transform="matrix(0.7071 -0.7071 0.7071 0.7071 2.4281 373.5797)" class="st2" width="20" height="20"/>
		
			<rect x="456.3" y="159.6" transform="matrix(0.7071 -0.7071 0.7071 0.7071 16.6191 379.4173)" class="st1" width="20" height="20"/>
		
			<rect x="442.2" y="145.5" transform="matrix(0.7071 -0.7071 0.7071 0.7071 22.4769 365.2751)" class="st2" width="20" height="20"/>
		
			<rect x="456.3" y="131.4" transform="matrix(0.7071 -0.7071 0.7071 0.7071 36.6191 371.133)" class="st1" width="20" height="20"/>
		<rect x="456.3" y="188" transform="matrix(0.7071 -0.7071 0.7071 0.7071 -3.4053 387.7117)" class="st1" width="20" height="20"/>
		
			<rect x="428" y="216.3" transform="matrix(0.7071 -0.7071 0.7071 0.7071 -31.6957 375.9985)" class="st1" width="20" height="20"/>
		
			<rect x="456.3" y="216.3" transform="matrix(0.7071 -0.7071 0.7071 0.7071 -23.4114 395.9985)" class="st1" width="20" height="20"/>
		
			<rect x="442.2" y="202.1" transform="matrix(0.7071 -0.7071 0.7071 0.7071 -17.5536 381.8563)" class="st2" width="20" height="20"/>
		
			<rect x="371.5" y="216.2" transform="matrix(0.7071 -0.7071 0.7071 0.7071 -48.2398 335.9884)" class="st1" width="20" height="20"/>
		
			<rect x="399.7" y="216.2" transform="matrix(0.7071 -0.7071 0.7071 0.7071 -39.9556 355.9884)" class="st1" width="20" height="20"/>
		
			<rect x="385.6" y="202.1" transform="matrix(0.7071 -0.7071 0.7071 0.7071 -34.0977 341.8462)" class="st2" width="20" height="20"/>
		
			<rect x="399.7" y="187.9" transform="matrix(0.7071 -0.7071 0.7071 0.7071 -19.9556 347.7041)" class="st1" width="20" height="20"/>
		
			<rect x="413.9" y="202.2" transform="matrix(0.7071 -0.7071 0.7071 0.7071 -25.8622 361.8664)" class="st2" width="20" height="20"/>
		
			<rect x="428" y="187.9" transform="matrix(0.7071 -0.7071 0.7071 0.7071 -11.6713 367.7041)" class="st1" width="20" height="20"/>
		
			<rect x="413.9" y="173.8" transform="matrix(0.7071 -0.7071 0.7071 0.7071 -5.8134 353.562)" class="st2" width="20" height="20"/>
		
			<rect x="428" y="-10.1" transform="matrix(0.7071 -0.7071 0.7071 0.7071 128.3927 309.6877)" class="st1" width="20" height="20"/>
		<rect x="442.2" y="4.1" transform="matrix(0.7071 -0.7071 0.7071 0.7071 122.4861 323.85)" class="st2" width="20" height="20"/>
		
			<rect x="456.3" y="-10.1" transform="matrix(0.7071 -0.7071 0.7071 0.7071 136.677 329.6877)" class="st1" width="20" height="20"/>
		
			<rect x="371.5" y="-10.2" transform="matrix(0.7071 -0.7071 0.7071 0.7071 111.8486 269.6776)" class="st1" width="20" height="20"/>
		<rect x="385.6" y="4" transform="matrix(0.7071 -0.7071 0.7071 0.7071 105.9419 283.8399)" class="st2" width="20" height="20"/>
		
			<rect x="399.7" y="-10.2" transform="matrix(0.7071 -0.7071 0.7071 0.7071 120.1329 289.6776)" class="st1" width="20" height="20"/>
		
			<rect x="399.7" y="18.1" transform="matrix(0.7071 -0.7071 0.7071 0.7071 100.1085 297.972)" class="st1" width="20" height="20"/>
		
			<rect x="413.9" y="32.4" transform="matrix(0.7071 -0.7071 0.7071 0.7071 94.2018 312.1343)" class="st2" width="20" height="20"/>
		<rect x="428" y="18.1" transform="matrix(0.7071 -0.7071 0.7071 0.7071 108.3927 317.9719)" class="st1" width="20" height="20"/>
		<rect x="413.9" y="4" transform="matrix(0.7071 -0.7071 0.7071 0.7071 114.2506 303.8298)" class="st2" width="20" height="20"/>
		<rect x="428" y="46.4" transform="matrix(0.7071 -0.7071 0.7071 0.7071 88.3805 326.2613)" class="st1" width="20" height="20"/>
		
			<rect x="442.2" y="60.7" transform="matrix(0.7071 -0.7071 0.7071 0.7071 82.4739 340.4236)" class="st2" width="20" height="20"/>
		
			<rect x="456.3" y="46.4" transform="matrix(0.7071 -0.7071 0.7071 0.7071 96.6648 346.2613)" class="st1" width="20" height="20"/>
		
			<rect x="442.2" y="32.3" transform="matrix(0.7071 -0.7071 0.7071 0.7071 102.5227 332.1191)" class="st2" width="20" height="20"/>
		
			<rect x="456.3" y="18.2" transform="matrix(0.7071 -0.7071 0.7071 0.7071 116.6648 337.977)" class="st1" width="20" height="20"/>
		
			<rect x="456.3" y="74.8" transform="matrix(0.7071 -0.7071 0.7071 0.7071 76.6404 354.5556)" class="st1" width="20" height="20"/>
		<rect x="32" y="46.5" transform="matrix(0.7071 -0.7071 0.7071 0.7071 -27.6419 46.2789)" class="st1" width="20" height="20"/>
		<rect x="46.2" y="60.7" transform="matrix(0.7071 -0.7071 0.7071 0.7071 -33.5486 60.4413)" class="st2" width="20" height="20"/>
		<rect x="60.3" y="46.5" transform="matrix(0.7071 -0.7071 0.7071 0.7071 -19.3577 66.2789)" class="st1" width="20" height="20"/>
		<rect x="46.2" y="32.4" transform="matrix(0.7071 -0.7071 0.7071 0.7071 -13.4998 52.1368)" class="st2" width="20" height="20"/>
		<rect x="32" y="18.2" transform="matrix(0.7071 -0.7071 0.7071 0.7071 -7.6175 37.9846)" class="st1" width="20" height="20"/>
		<rect x="32" y="74.8" transform="matrix(0.7071 -0.7071 0.7071 0.7071 -47.6419 54.5632)" class="st1" width="20" height="20"/>
		<rect x="88.6" y="-10.2" transform="matrix(0.7071 -0.7071 0.7071 0.7071 28.9998 69.6801)" class="st1" width="20" height="20"/>
		<rect x="102.8" y="4" transform="matrix(0.7071 -0.7071 0.7071 0.7071 23.0931 83.8424)" class="st2" width="20" height="20"/>
		
			<rect x="116.9" y="-10.2" transform="matrix(0.7071 -0.7071 0.7071 0.7071 37.2841 89.6801)" class="st1" width="20" height="20"/>
		<rect x="32" y="-10.2" transform="matrix(0.7071 -0.7071 0.7071 0.7071 12.4556 29.67)" class="st1" width="20" height="20"/>
		<rect x="46.2" y="4" transform="matrix(0.7071 -0.7071 0.7071 0.7071 6.549 43.8323)" class="st2" width="20" height="20"/>
		<rect x="60.3" y="-10.2" transform="matrix(0.7071 -0.7071 0.7071 0.7071 20.7399 49.67)" class="st1" width="20" height="20"/>
		<rect x="60.3" y="18.1" transform="matrix(0.7071 -0.7071 0.7071 0.7071 0.7155 57.9644)" class="st1" width="20" height="20"/>
		<rect x="74.5" y="32.3" transform="matrix(0.7071 -0.7071 0.7071 0.7071 -5.1911 72.1267)" class="st2" width="20" height="20"/>
		<rect x="88.6" y="18.1" transform="matrix(0.7071 -0.7071 0.7071 0.7071 8.9998 77.9644)" class="st1" width="20" height="20"/>
		<rect x="74.5" y="4" transform="matrix(0.7071 -0.7071 0.7071 0.7071 14.8576 63.8222)" class="st2" width="20" height="20"/>
		<rect x="32" y="131.3" transform="matrix(0.7071 -0.7071 0.7071 0.7071 -87.5931 71.1116)" class="st1" width="20" height="20"/>
		
			<rect x="46.2" y="145.5" transform="matrix(0.7071 -0.7071 0.7071 0.7071 -93.4998 85.2739)" class="st2" width="20" height="20"/>
		<rect x="32" y="159.6" transform="matrix(0.7071 -0.7071 0.7071 0.7071 -107.5993 79.3984)" class="st1" width="20" height="20"/>
		<rect x="60.3" y="159.5" transform="matrix(0.7071 -0.7071 0.7071 0.7071 -99.254 99.3731)" class="st1" width="20" height="20"/>
		
			<rect x="74.5" y="173.7" transform="matrix(0.7071 -0.7071 0.7071 0.7071 -105.1606 113.5354)" class="st2" width="20" height="20"/>
		
			<rect x="88.6" y="187.8" transform="matrix(0.7071 -0.7071 0.7071 0.7071 -110.9941 127.6675)" class="st1" width="20" height="20"/>
		
			<rect x="102.8" y="202" transform="matrix(0.7071 -0.7071 0.7071 0.7071 -116.9008 141.8298)" class="st2" width="20" height="20"/>
		
			<rect x="116.9" y="216.1" transform="matrix(0.7071 -0.7071 0.7071 0.7071 -122.722 155.9568)" class="st1" width="20" height="20"/>
		
			<rect x="60.3" y="216.1" transform="matrix(0.7071 -0.7071 0.7071 0.7071 -139.2845 115.9543)" class="st1" width="20" height="20"/>
		
			<rect x="88.6" y="216.1" transform="matrix(0.7071 -0.7071 0.7071 0.7071 -131.0002 135.9543)" class="st1" width="20" height="20"/>
		
			<rect x="74.5" y="202" transform="matrix(0.7071 -0.7071 0.7071 0.7071 -125.1423 121.8121)" class="st2" width="20" height="20"/>
		<rect x="32" y="216.1" transform="matrix(0.7071 -0.7071 0.7071 0.7071 -147.5444 95.9442)" class="st1" width="20" height="20"/>
		<rect x="32" y="187.8" transform="matrix(0.7071 -0.7071 0.7071 0.7071 -127.5444 87.6599)" class="st1" width="20" height="20"/>
		<rect x="46.2" y="202" transform="matrix(0.7071 -0.7071 0.7071 0.7071 -133.451 101.8222)" class="st2" width="20" height="20"/>
		
			<rect x="60.3" y="187.8" transform="matrix(0.7071 -0.7071 0.7071 0.7071 -119.2601 107.6599)" class="st1" width="20" height="20"/>
		
			<rect x="46.2" y="173.6" transform="matrix(0.7071 -0.7071 0.7071 0.7071 -113.4022 93.5178)" class="st2" width="20" height="20"/>
		<rect x="-24.5" y="103" transform="matrix(0.7071 -0.7071 0.7071 0.7071 -84.1545 22.8243)" class="st1" width="20" height="20"/>
		
			<rect x="-10.4" y="117.2" transform="matrix(0.7071 -0.7071 0.7071 0.7071 -90.0611 36.9866)" class="st2" width="20" height="20"/>
		<rect x="3.8" y="103" transform="matrix(0.7071 -0.7071 0.7071 0.7071 -75.8702 42.8243)" class="st1" width="20" height="20"/>
		
			<rect x="-10.4" y="88.9" transform="matrix(0.7071 -0.7071 0.7071 0.7071 -70.0124 28.6822)" class="st2" width="20" height="20"/>
		<rect x="3.8" y="74.7" transform="matrix(0.7071 -0.7071 0.7071 0.7071 -55.8702 34.54)" class="st1" width="20" height="20"/>
		<rect x="17.9" y="88.9" transform="matrix(0.7071 -0.7071 0.7071 0.7071 -61.7769 48.7024)" class="st2" width="20" height="20"/>
		<rect x="17.9" y="60.6" transform="matrix(0.7071 -0.7071 0.7071 0.7071 -41.7281 40.3979)" class="st2" width="20" height="20"/>
		<rect x="3.8" y="131.3" transform="matrix(0.7071 -0.7071 0.7071 0.7071 -95.8946 51.1187)" class="st1" width="20" height="20"/>
		
			<rect x="17.9" y="145.5" transform="matrix(0.7071 -0.7071 0.7071 0.7071 -101.8013 65.281)" class="st2" width="20" height="20"/>
		
			<rect x="17.9" y="117.2" transform="matrix(0.7071 -0.7071 0.7071 0.7071 -81.7525 56.9765)" class="st2" width="20" height="20"/>
		<rect x="-24.5" y="46.6" transform="matrix(0.7071 -0.7071 0.7071 0.7071 -44.2978 6.3151)" class="st1" width="20" height="20"/>
		
			<rect x="-10.4" y="60.8" transform="matrix(0.7071 -0.7071 0.7071 0.7071 -50.2045 20.4775)" class="st2" width="20" height="20"/>
		<rect x="3.8" y="46.6" transform="matrix(0.7071 -0.7071 0.7071 0.7071 -36.0135 26.3151)" class="st1" width="20" height="20"/>
		<rect x="-10.4" y="32.5" transform="matrix(0.7071 -0.7071 0.7071 0.7071 -30.1557 12.173)" class="st2" width="20" height="20"/>
		
			<rect x="-24.5" y="18.3" transform="matrix(0.7071 -0.7071 0.7071 0.7071 -24.2734 -1.9793)" class="st1" width="20" height="20"/>
		
			<rect x="-24.5" y="74.9" transform="matrix(0.7071 -0.7071 0.7071 0.7071 -64.2978 14.5994)" class="st1" width="20" height="20"/>
		
			<rect x="-24.5" y="-10.1" transform="matrix(0.7071 -0.7071 0.7071 0.7071 -4.2002 -10.2938)" class="st1" width="20" height="20"/>
		<rect x="-10.4" y="4.1" transform="matrix(0.7071 -0.7071 0.7071 0.7071 -10.1069 3.8685)" class="st2" width="20" height="20"/>
		<rect x="3.8" y="-10.1" transform="matrix(0.7071 -0.7071 0.7071 0.7071 4.084 9.7062)" class="st1" width="20" height="20"/>
		<rect x="3.8" y="18.2" transform="matrix(0.7071 -0.7071 0.7071 0.7071 -15.9404 18.0005)" class="st1" width="20" height="20"/>
		<rect x="17.9" y="32.5" transform="matrix(0.7071 -0.7071 0.7071 0.7071 -21.847 32.1629)" class="st2" width="20" height="20"/>
		<rect x="17.9" y="4.1" transform="matrix(0.7071 -0.7071 0.7071 0.7071 -1.7982 23.8584)" class="st2" width="20" height="20"/>
		
			<rect x="-24.5" y="131.4" transform="matrix(0.7071 -0.7071 0.7071 0.7071 -104.249 31.1477)" class="st1" width="20" height="20"/>
		
			<rect x="-10.4" y="145.6" transform="matrix(0.7071 -0.7071 0.7071 0.7071 -110.1557 45.3101)" class="st2" width="20" height="20"/>
		
			<rect x="-24.5" y="159.7" transform="matrix(0.7071 -0.7071 0.7071 0.7071 -124.2551 39.4345)" class="st1" width="20" height="20"/>
		
			<rect x="3.8" y="159.6" transform="matrix(0.7071 -0.7071 0.7071 0.7071 -115.9099 59.4093)" class="st1" width="20" height="20"/>
		
			<rect x="17.9" y="173.8" transform="matrix(0.7071 -0.7071 0.7071 0.7071 -121.8165 73.5716)" class="st2" width="20" height="20"/>
		
			<rect x="3.8" y="216.2" transform="matrix(0.7071 -0.7071 0.7071 0.7071 -155.9404 75.9904)" class="st1" width="20" height="20"/>
		
			<rect x="17.9" y="202.1" transform="matrix(0.7071 -0.7071 0.7071 0.7071 -141.7982 81.8483)" class="st2" width="20" height="20"/>
		
			<rect x="-24.5" y="216.2" transform="matrix(0.7071 -0.7071 0.7071 0.7071 -164.2002 55.9803)" class="st1" width="20" height="20"/>
		
			<rect x="-24.5" y="187.9" transform="matrix(0.7071 -0.7071 0.7071 0.7071 -144.2002 47.6961)" class="st1" width="20" height="20"/>
		
			<rect x="-10.4" y="202.1" transform="matrix(0.7071 -0.7071 0.7071 0.7071 -150.1069 61.8584)" class="st2" width="20" height="20"/>
		<rect x="3.8" y="187.9" transform="matrix(0.7071 -0.7071 0.7071 0.7071 -135.916 67.6961)" class="st1" width="20" height="20"/>
		
			<rect x="-10.4" y="173.8" transform="matrix(0.7071 -0.7071 0.7071 0.7071 -130.0581 53.5539)" class="st2" width="20" height="20"/>
	</g>
</g>
</svg>
