<?xml version="1.0" encoding="utf-8"?>
<!-- Generator: Adobe Illustrator 22.1.0, SVG Export Plug-In . SVG Version: 6.00 Build 0)  -->
<svg version="1.1" id="圖層_1" xmlns="http://www.w3.org/2000/svg" xmlns:xlink="http://www.w3.org/1999/xlink" x="0px" y="0px"
	 viewBox="0 0 85 22" style="enable-background:new 0 0 85 22;" xml:space="preserve">
<style type="text/css">
	.st0{fill:url(#SVGID_1_);}
	.st1{fill:#003D00;}
	.st2{fill:url(#SVGID_2_);}
	.st3{fill:url(#SVGID_3_);}
	.st4{fill:url(#SVGID_4_);}
</style>
<g>
	<g>
		<linearGradient id="SVGID_1_" gradientUnits="userSpaceOnUse" x1="10.7437" y1="20.4746" x2="10.7437" y2="1.751">
			<stop  offset="0" style="stop-color:#E9DA81"/>
			<stop  offset="0.1414" style="stop-color:#E8D67D"/>
			<stop  offset="0.2714" style="stop-color:#E6CB73"/>
			<stop  offset="0.3965" style="stop-color:#E3B960"/>
			<stop  offset="0.4462" style="stop-color:#E1AF57"/>
			<stop  offset="0.4945" style="stop-color:#E5BD6B"/>
			<stop  offset="0.5898" style="stop-color:#ECD58D"/>
			<stop  offset="0.6874" style="stop-color:#F1E7A7"/>
			<stop  offset="0.7869" style="stop-color:#F5F5BA"/>
			<stop  offset="0.8895" style="stop-color:#F7FCC5"/>
			<stop  offset="1" style="stop-color:#F8FFC9"/>
		</linearGradient>
		<path class="st0" d="M4.6,9.8v10.7H1.9V1.8h8.5v6.4c0,1.1-0.7,1.6-2.2,1.6H4.6z M7.8,3.8H4.6v1.1h3.3V3.8z M4.6,6.8v1.1h2.7
			c0.4,0,0.6-0.1,0.6-0.4V6.8H4.6z M15.8,10.6v2.1h-1.6v1.4H16v2.2h-1.9v3.8h-2.5v-3.8H9.8v2.3c0,0.8-0.5,1.2-1.5,1.2H5.5v-2H7
			c0.2,0,0.3-0.1,0.3-0.3v-1.1h-2v-2.2h2v-1.4H5.5v-2.1H15.8z M11.7,14.2v-1.4H9.8v1.4H11.7z M13.6,1.8h6v16.8c0,1.3-0.8,2-2.4,2H16
			v-2.2h0.4c0.4,0,0.6-0.2,0.6-0.5v-8h-3.8c-1.2,0-1.8-0.4-1.8-1.3V1.8H13.6z M16.9,4.9V3.8h-3.1v1.1H16.9z M16.9,7.9V6.8h-3.1v0.8
			c0,0.3,0.1,0.4,0.3,0.4H16.9z"/>
		<path class="st1" d="M19.6,1.8v16.8c0,1.3-0.8,2-2.4,2H16v-2.2h0.4c0.4,0,0.6-0.2,0.6-0.5v-8h-3.8c-1.2,0-1.8-0.4-1.8-1.3V1.8h2.4
			H19.6 M13.8,4.9h3.1V3.8h-3.1V4.9 M14.2,7.9h2.8V6.8h-3.1v0.8C13.8,7.8,13.9,7.9,14.2,7.9 M10.4,1.8v6.4c0,1.1-0.7,1.6-2.2,1.6
			H4.6v10.7H1.9V1.8H10.4 M4.6,4.9h3.3V3.8H4.6V4.9 M4.6,7.9h2.7c0.4,0,0.6-0.1,0.6-0.4V6.8H4.6V7.9 M15.8,10.6v2.1h-1.6v1.4H16v2.2
			h-1.9v3.8h-2.5v-3.8H9.8v2.3c0,0.8-0.5,1.2-1.5,1.2H5.5v-2H7c0.2,0,0.3-0.1,0.3-0.3v-1.1h-2v-2.2h2v-1.4H5.5v-2.1H15.8 M9.8,14.2
			h1.9v-1.4H9.8V14.2 M19.6,0.8h-6h-2.4c-0.2,0-0.3,0-0.5,0.1c-0.1-0.1-0.3-0.1-0.5-0.1H1.9c-0.6,0-1,0.4-1,1v18.7c0,0.6,0.4,1,1,1
			h2.7c0.4,0,0.8-0.2,0.9-0.6c0,0,0,0,0.1,0h2.8c1.4,0,2.1-0.6,2.4-1.4v0.7c0,0.6,0.4,1,1,1h2.5c0.3,0,0.6-0.2,0.8-0.4
			c0.1,0.4,0.5,0.8,1,0.8h1.3c3,0,3.4-2.1,3.4-3V1.8C20.6,1.2,20.2,0.8,19.6,0.8L19.6,0.8z M15.2,17.4h0.3c-0.1,0.1-0.3,0.2-0.3,0.3
			V17.4L15.2,17.4z"/>
	</g>
	<g>
		<linearGradient id="SVGID_2_" gradientUnits="userSpaceOnUse" x1="31.7847" y1="20.3926" x2="31.7847" y2="1.3613">
			<stop  offset="0" style="stop-color:#E9DA81"/>
			<stop  offset="0.1414" style="stop-color:#E8D67D"/>
			<stop  offset="0.2714" style="stop-color:#E6CB73"/>
			<stop  offset="0.3965" style="stop-color:#E3B960"/>
			<stop  offset="0.4462" style="stop-color:#E1AF57"/>
			<stop  offset="0.4945" style="stop-color:#E5BD6B"/>
			<stop  offset="0.5898" style="stop-color:#ECD58D"/>
			<stop  offset="0.6874" style="stop-color:#F1E7A7"/>
			<stop  offset="0.7869" style="stop-color:#F5F5BA"/>
			<stop  offset="0.8895" style="stop-color:#F7FCC5"/>
			<stop  offset="1" style="stop-color:#F8FFC9"/>
		</linearGradient>
		<path class="st2" d="M40.3,14.2v3.9h0.7v2.2H22.5v-2.2h0.7v-3.9H40.3z M25.9,1.4h2.9l-0.2,0.7h3.7v5l0.4,0v2.2l-0.4,0V12
			c0,1.1-0.7,1.7-2.2,1.7h-1.6v-1.9h0.7c0.4,0,0.6-0.1,0.6-0.4v-2l-1,0v2.3h-2.3V9.4l-0.7,0v1.8c0,1.7-0.8,2.5-2.5,2.5h-0.7v-2.2H23
			c0.2,0,0.3-0.1,0.3-0.4V9.5l-0.6,0V7.4l0.6,0V2.1h2.4L25.9,1.4z M25.9,7.3l4-0.1V4.3h-4V7.3z M26,18.2h2.2v-1.7H26V18.2z
			 M26.1,4.7h2.3L28.5,5c0,0.1,0.1,0.2,0.2,0.2h0.7v1.5h-1.6c-0.6,0-1-0.3-1.2-0.9L26.1,4.7z M30.6,18.2h2.3v-1.7h-2.3V18.2z
			 M33.1,7.6h7.8v1.8l-2.4,2.1l0.1,0.1c0.3,0.2,0.6,0.3,1,0.3h1.5v2h-2.8c-0.3,0-0.6-0.1-0.9-0.3l-0.7-0.6L36,13.6
			c-0.2,0.2-0.5,0.2-0.8,0.2h-2.6v-2h1.9c0.2,0,0.4-0.1,0.5-0.2L32.7,10H36l0.5,0.3l0.8-0.8h-4.3V7.6z M36.3,1.8h3.9v2.9
			c0,0.3,0.2,0.4,0.5,0.4h0.4v2h-1.8c-1.1,0-1.7-0.6-1.7-1.7V4h-1.8v1.3c0,1.1-0.5,1.6-1.6,1.6h-1.4V5h0.2c0.3,0,0.4-0.1,0.4-0.4
			V1.8H36.3z M35.5,18.2h2.2v-1.7h-2.2V18.2z"/>
		<path class="st1" d="M28.8,1.4l-0.2,0.7h3.7v5l0.4,0v2.2l-0.4,0V12c0,1.1-0.7,1.7-2.2,1.7h-1.6v-1.9h0.7c0.4,0,0.6-0.1,0.6-0.4v-2
			l-1,0v2.3h-2.3V9.4l-0.7,0v1.8c0,1.7-0.8,2.5-2.5,2.5h-0.7v-2.2H23c0.2,0,0.3-0.1,0.3-0.4V9.5l-0.6,0V7.4l0.6,0V2.1h2.4l0.1-0.7
			H28.8 M25.9,7.3l4-0.1V4.3h-4V7.3 M40.2,1.8v2.9c0,0.3,0.2,0.4,0.5,0.4h0.4v2h-1.8c-1.1,0-1.7-0.6-1.7-1.7V4h-1.8v1.3
			c0,1.1-0.5,1.6-1.6,1.6h-1.4V5h0.2c0.3,0,0.4-0.1,0.4-0.4V1.8h3H40.2 M28.4,4.7L28.5,5c0,0.1,0.1,0.2,0.2,0.2h0.7v1.5h-1.6
			c-0.6,0-1-0.3-1.2-0.9l-0.4-1H28.4 M40.9,7.6v1.8l-2.4,2.1l0.1,0.1c0.3,0.2,0.6,0.3,1,0.3h1.5v2h-2.8c-0.3,0-0.6-0.1-0.9-0.3
			l-0.7-0.6L36,13.6c-0.2,0.2-0.5,0.2-0.8,0.2h-2.6v-2h1.9c0.2,0,0.4-0.1,0.5-0.2L32.7,10H36l0.5,0.3l0.8-0.8h-4.3v-2H40.9
			 M40.3,14.2v3.9h0.7v2.2H22.5v-2.2h0.7v-3.9H40.3 M35.5,18.2h2.2v-1.7h-2.2V18.2 M30.6,18.2h2.3v-1.7h-2.3V18.2 M26,18.2h2.2v-1.7
			H26V18.2 M28.8,0.4h-2.9c-0.5,0-0.8,0.3-1,0.7h-1.6c-0.6,0-1,0.4-1,1v4.4C22,6.6,21.7,7,21.7,7.4v2.1c0,0.3,0.1,0.5,0.3,0.7
			c0.1,0.1,0.2,0.2,0.3,0.2v0.2c-0.4,0.1-0.7,0.5-0.7,1v2.2c0,0.4,0.3,0.8,0.7,0.9v2.4c-0.4,0.1-0.7,0.5-0.7,1v2.2c0,0.6,0.4,1,1,1
			h18.6c0.6,0,1-0.4,1-1v-2.2c0-0.5-0.3-0.9-0.7-1v-2.3c0.4-0.1,0.7-0.5,0.7-1v-2c0-0.6-0.4-1-1-1h-0.4l0.8-0.7
			c0.2-0.2,0.3-0.5,0.3-0.8V7.7c0.1-0.2,0.2-0.4,0.2-0.6v-2c0-0.5-0.4-0.9-0.9-1V1.8c0-0.6-0.4-1-1-1h-3.9h-3
			c-0.3,0-0.5,0.1-0.7,0.3c-0.1,0-0.2,0-0.3,0h-2.6c0-0.1-0.1-0.3-0.2-0.4C29.4,0.5,29.1,0.4,28.8,0.4L28.8,0.4z M28.8,2.4L28.8,2.4
			L28.8,2.4L28.8,2.4z M36.5,6.6c0.1-0.1,0.1-0.3,0.2-0.4c0,0.2,0.1,0.3,0.1,0.4H36.5L36.5,6.6z M26.7,12.6h0.9v0.6h-1.2
			C26.5,13,26.6,12.8,26.7,12.6L26.7,12.6z"/>
	</g>
	<g>
		<linearGradient id="SVGID_3_" gradientUnits="userSpaceOnUse" x1="52.7847" y1="20.6387" x2="52.7847" y2="1.3613">
			<stop  offset="0" style="stop-color:#E9DA81"/>
			<stop  offset="0.1414" style="stop-color:#E8D67D"/>
			<stop  offset="0.2714" style="stop-color:#E6CB73"/>
			<stop  offset="0.3965" style="stop-color:#E3B960"/>
			<stop  offset="0.4462" style="stop-color:#E1AF57"/>
			<stop  offset="0.4945" style="stop-color:#E5BD6B"/>
			<stop  offset="0.5898" style="stop-color:#ECD58D"/>
			<stop  offset="0.6874" style="stop-color:#F1E7A7"/>
			<stop  offset="0.7869" style="stop-color:#F5F5BA"/>
			<stop  offset="0.8895" style="stop-color:#F7FCC5"/>
			<stop  offset="1" style="stop-color:#F8FFC9"/>
		</linearGradient>
		<path class="st3" d="M46.4,1.5h2.7l-2.4,3.1h1.2l1-1.3h2.8V2.8h3.7V1.4h2.9v1.4h4v2.4h-4.7l-2.4,4h4c0.2,0,0.2-0.1,0.2-0.2
			l-0.6-2.2h2.5l0.5,1.9c0,0.1,0.1,0.2,0.1,0.5v1.1c0,0.8-0.5,1.1-1.5,1.1h-0.5v6.4c0,0.3,0.2,0.4,0.5,0.4h1.8v2.3h-3.4
			c-1.1,0-1.6-0.4-1.6-1.3v-7.8h-5.2V9.1l2.5-4h-2.9V3.5L47,9.3H49c0.2,0,0.3-0.1,0.3-0.4V7.1h2.2v2.8c0,0.3-0.2,0.7-0.5,1.1
			c-0.4,0.4-0.8,0.7-1.3,0.7h-0.8v0.7H51l0.7,4.5c0.1,0.4,0.2,0.6,0.5,0.6h0.1v2.3h-1.3c-0.8,0-1.3-0.6-1.4-1.9l-0.6-4.9v7.6h-2.3
			v-7.9l-0.8,5.4c-0.2,1.4-0.7,2-1.6,2h-1v-2.6h0.2c0.1,0,0.2-0.3,0.3-0.9l0.4-4.4h2.3v-0.7h-2.9V10c0-0.2,0.2-0.5,0.6-0.9l1.8-2.2
			h-2.3V5c0-0.1,0.1-0.2,0.2-0.4L46.4,1.5z M56.5,12.3l-0.7,6.4c-0.1,1.2-0.6,1.8-1.3,1.8h-1.9v-2.2h0.3c0.2,0,0.4-0.3,0.5-0.8
			l0.5-5.1H56.5z"/>
		<path class="st1" d="M58.3,1.4v1.4h4v2.4h-4.7l-2.4,4h4c0.2,0,0.2-0.1,0.2-0.2l-0.6-2.2h2.5l0.5,1.9c0,0.1,0.1,0.2,0.1,0.5v1.1
			c0,0.8-0.5,1.1-1.5,1.1h-0.5v6.4c0,0.3,0.2,0.4,0.5,0.4h1.8v2.3h-3.4c-1.1,0-1.6-0.4-1.6-1.3v-7.8h-5.2V9.1l2.5-4h-2.9V3.5L47,9.3
			H49c0.2,0,0.3-0.1,0.3-0.4V7.1h2.2v2.8c0,0.3-0.2,0.7-0.5,1.1c-0.4,0.4-0.8,0.7-1.3,0.7h-0.8v0.7H51l0.7,4.5
			c0.1,0.4,0.2,0.6,0.5,0.6h0.1v2.3h-1.3c-0.8,0-1.3-0.6-1.4-1.9l-0.6-4.9v7.6h-2.3v-7.9l-0.8,5.4c-0.2,1.4-0.7,2-1.6,2h-1v-2.6h0.2
			c0.1,0,0.2-0.3,0.3-0.9l0.4-4.4h2.3v-0.7h-2.9V10c0-0.2,0.2-0.5,0.6-0.9l1.8-2.2h-2.3V5c0-0.1,0.1-0.2,0.2-0.4l2.4-3.2h2.7
			l-2.4,3.1h1.2l1-1.3h2.8V2.8h3.7V1.4H58.3 M56.5,12.3l-0.7,6.4c-0.1,1.2-0.6,1.8-1.3,1.8h-1.9v-2.2h0.3c0.2,0,0.4-0.3,0.5-0.8
			l0.5-5.1H56.5 M58.3,0.4h-2.9c-0.6,0-1,0.4-1,1v0.4h-2.7c-0.4,0-0.8,0.3-0.9,0.6h-1.1l0.2-0.3c0.2-0.3,0.3-0.7,0.1-1.1
			c-0.2-0.3-0.5-0.6-0.9-0.6h-2.7c-0.3,0-0.6,0.1-0.8,0.4L43.2,4c-0.3,0.4-0.4,0.7-0.4,1v1.8c0,0.6,0.4,1,1,1H44l-0.4,0.5
			c-0.4,0.4-0.8,0.9-0.8,1.6v1.6c0,0.4,0.2,0.7,0.5,0.9l-0.4,4.1c0,0,0,0.1,0,0.1c-0.3,0.2-0.6,0.5-0.6,0.9v2.6c0,0.6,0.4,1,1,1h1
			c0.4,0,0.9-0.1,1.3-0.4c0.1,0.5,0.5,0.9,1,0.9h2.3c0.6,0,1-0.4,1-1v-0.1c0.4,0.2,0.7,0.2,1,0.2h0.8c0.2,0.4,0.5,0.6,0.9,0.6h1.9
			c0.6,0,1.4-0.2,1.9-1.4c0.3,0.8,1,1.4,2.4,1.4h3.4c0.6,0,1-0.4,1-1v-2.3c0-0.6-0.4-1-1-1h-1.3v-4.8c1.4-0.2,2-1.2,2-2.1V9.1
			c0,0,0-0.1,0-0.1c0-0.3-0.1-0.5-0.1-0.6l-0.5-1.9c0-0.1-0.1-0.2-0.1-0.3h0.1c0.6,0,1-0.4,1-1V2.8c0-0.6-0.4-1-1-1h-3V1.4
			C59.3,0.8,58.8,0.4,58.3,0.4L58.3,0.4z M50.9,6.1l0.2-0.2C51.2,6,51.3,6,51.5,6.1H50.9L50.9,6.1z M51.8,6.1h1l-0.3,0.5
			C52.3,6.4,52.1,6.2,51.8,6.1L51.8,6.1z M56.9,8.1l0.9-1.5c0,0.1,0,0.2,0,0.3l0.3,1.2H56.9L56.9,8.1z M52.5,16.1L52,12.3
			c0,0,0.1,0,0.1,0h0.8L52.5,16.1L52.5,16.1z"/>
	</g>
	<g>
		<linearGradient id="SVGID_4_" gradientUnits="userSpaceOnUse" x1="73.7437" y1="20.5566" x2="73.7437" y2="1.5049">
			<stop  offset="0" style="stop-color:#E9DA81"/>
			<stop  offset="0.1414" style="stop-color:#E8D67D"/>
			<stop  offset="0.2714" style="stop-color:#E6CB73"/>
			<stop  offset="0.3965" style="stop-color:#E3B960"/>
			<stop  offset="0.4462" style="stop-color:#E1AF57"/>
			<stop  offset="0.4945" style="stop-color:#E5BD6B"/>
			<stop  offset="0.5898" style="stop-color:#ECD58D"/>
			<stop  offset="0.6874" style="stop-color:#F1E7A7"/>
			<stop  offset="0.7869" style="stop-color:#F5F5BA"/>
			<stop  offset="0.8895" style="stop-color:#F7FCC5"/>
			<stop  offset="1" style="stop-color:#F8FFC9"/>
		</linearGradient>
		<path class="st4" d="M73.9,4.6v2.4h-9.6V4.6H73.9z M65,13.5h8.2v5.2c0,1.1-0.6,1.6-1.9,1.6H65V13.5z M73.2,7.7v2.2h-8.1V7.7H73.2z
			 M73.2,10.6v2.2h-8.1v-2.2H73.2z M73,1.7v2.2h-7.5V1.7H73z M70.1,18.2c0.4,0,0.6-0.2,0.6-0.5v-1.9h-3.1v2.4H70.1z M83.1,8.6v2.5
			h-3.2v9.5h-2.9v-9.5h-3V8.6h3V1.5h2.9v7.1H83.1z"/>
		<path class="st1" d="M79.9,1.5v7.1h3.2v2.5h-3.2v9.5h-2.9v-9.5h-3V8.6h3V1.5H79.9 M73,1.7v2.2h-7.5V1.7H73 M73.9,4.6v2.4h-9.6V4.6
			H73.9 M73.2,7.7v2.2h-8.1V7.7H73.2 M73.2,10.6v2.2h-8.1v-2.2H73.2 M73.2,13.5v5.2c0,1.1-0.6,1.6-1.9,1.6H65v-6.9H73.2 M67.6,18.2
			h2.5c0.4,0,0.6-0.2,0.6-0.5v-1.9h-3.1V18.2 M79.9,0.5h-2.9c-0.6,0-1,0.4-1,1v6.1h-1.4c0.1-0.2,0.2-0.4,0.2-0.6V4.6
			c0-0.5-0.4-1-1-1V1.7c0-0.6-0.4-1-1-1h-7.5c-0.6,0-1,0.4-1,1v1.9h-0.1c-0.6,0-1,0.4-1,1v2.4c0,0.5,0.3,0.9,0.7,1v2
			c0,0.1,0,0.3,0.1,0.4c0,0.1-0.1,0.2-0.1,0.4v2.2c0,0.1,0,0.2,0,0.3c-0.1,0.1-0.1,0.3-0.1,0.4v6.9c0,0.6,0.4,1,1,1h6.3
			c1.8,0,2.9-1,2.9-2.6v-5.2c0-0.1,0-0.2-0.1-0.3c0-0.1,0.1-0.2,0.1-0.3v-0.7h1.9v8.5c0,0.6,0.4,1,1,1h2.9c0.6,0,1-0.4,1-1v-8.5h2.2
			c0.6,0,1-0.4,1-1V8.6c0-0.6-0.4-1-1-1h-2.2V1.5C80.9,1,80.5,0.5,79.9,0.5L79.9,0.5z M68.6,16.8h1.1v0.4l-1.1,0V16.8L68.6,16.8z"/>
	</g>
</g>
</svg>
